# Name,age,phone,cars
Katie,22,555-1224,AUDI
Emre,24,555-1111,Volkswagen
Camillo,23,139-9999,Tesla
Katie Mc,22,555-8888,VW Polo
Katie Mo,25,555-7777,Citroen Prese
Chloe,24,555-6666,Fiat Arbatha
Eimear,23,555-5555,Renault Clio
Rachel,25,5555-4444,Delorean
Megan,22,555-3333,Fiat 500 Arbatha
